{
	"_id": {
		"$oid": "5b276edc908f2575fe883ee7"
	},
	"_flags": ["imported"],
	"workflow": {
		"workflowId": "intermediaryWorkflow",
		"state": "active"
	},
	"intermediary": {
		"intermediarySpecific": {
			"intermediaryType": "broker"
		},
		"allowedProducts": {
			"piChesham": {
				"effective": {
					"gte": {
						"$date": "2000-10-01T00:00:00.000Z"
					}
				},
				"commissions": [{
					"id": {
						"$oid": "5d30784e99c09b0d8b2e3a2f"
					},
					"effective": {
						"gte": {
							"$date": "2000-10-01T00:00:00.000Z"
						}
					},
					"riskClasses": {
						"pi": {
							"newBusiness": {
								"intermediaryCommission": {
									"$numberDecimal": "0.35"
								}
							},
							"endorsement": {
								"intermediaryCommission": {
									"$numberDecimal": "0.35"
								}
							},
							"renewal": {
								"intermediaryCommission": {
									"$numberDecimal": "0.35"
								}
							}
						},
						"gl": {
							"newBusiness": {
								"intermediaryCommission": {
									"$numberDecimal": "0.35"
								}
							},
							"endorsement": {
								"intermediaryCommission": {
									"$numberDecimal": "0.35"
								}
							},
							"renewal": {
								"intermediaryCommission": {
									"$numberDecimal": "0.35"
								}
							}
						},
						"el": {
							"newBusiness": {
								"intermediaryCommission": {
									"$numberDecimal": "0.35"
								}
							},
							"endorsement": {
								"intermediaryCommission": {
									"$numberDecimal": "0.35"
								}
							},
							"renewal": {
								"intermediaryCommission": {
									"$numberDecimal": "0.35"
								}
							}
						},
						"cyberMarketing": {
							"newBusiness": {
								"intermediaryCommission": {
									"$numberDecimal": "0.35"
								}
							},
							"endorsement": {
								"intermediaryCommission": {
									"$numberDecimal": "0.35"
								}
							},
							"renewal": {
								"intermediaryCommission": {
									"$numberDecimal": "0.35"
								}
							}
						}
					}
				}]
			},
			"property": {
				"effective": {
					"gte": {
						"$date": "2000-10-01T00:00:00.000Z"
					}
				},
				"commissions": [{
					"id": {
						"$oid": "5d30784e99c09b0d8b2e3a30"
					},
					"effective": {
						"gte": {
							"$date": "2000-10-01T00:00:00.000Z"
						}
					},
					"riskClasses": {
						"building": {
							"newBusiness": {
								"intermediaryCommission": {
									"$numberDecimal": "0.35"
								}
							},
							"endorsement": {
								"intermediaryCommission": {
									"$numberDecimal": "0.35"
								}
							},
							"renewal": {
								"intermediaryCommission": {
									"$numberDecimal": "0.35"
								}
							}
						},
						"content": {
							"newBusiness": {
								"intermediaryCommission": {
									"$numberDecimal": "0.35"
								}
							},
							"endorsement": {
								"intermediaryCommission": {
									"$numberDecimal": "0.35"
								}
							},
							"renewal": {
								"intermediaryCommission": {
									"$numberDecimal": "0.35"
								}
							}
						},
						"contractWork": {
							"newBusiness": {
								"intermediaryCommission": {
									"$numberDecimal": "0.35"
								}
							},
							"endorsement": {
								"intermediaryCommission": {
									"$numberDecimal": "0.35"
								}
							},
							"renewal": {
								"intermediaryCommission": {
									"$numberDecimal": "0.35"
								}
							}
						},
						"lossOfRent": {
							"newBusiness": {
								"intermediaryCommission": {
									"$numberDecimal": "0.35"
								}
							},
							"endorsement": {
								"intermediaryCommission": {
									"$numberDecimal": "0.35"
								}
							},
							"renewal": {
								"intermediaryCommission": {
									"$numberDecimal": "0.35"
								}
							}
						},
						"legalExpenses": {
							"newBusiness": {
								"intermediaryCommission": {
									"$numberDecimal": "0.35"
								}
							},
							"endorsement": {
								"intermediaryCommission": {
									"$numberDecimal": "0.35"
								}
							},
							"renewal": {
								"intermediaryCommission": {
									"$numberDecimal": "0.35"
								}
							}
						},
						"propertyOwnersLiability": {
							"newBusiness": {
								"intermediaryCommission": {
									"$numberDecimal": "0.35"
								}
							},
							"endorsement": {
								"intermediaryCommission": {
									"$numberDecimal": "0.35"
								}
							},
							"renewal": {
								"intermediaryCommission": {
									"$numberDecimal": "0.35"
								}
							}
						},
						"employersLiability": {
							"newBusiness": {
								"intermediaryCommission": {
									"$numberDecimal": "0.35"
								}
							},
							"endorsement": {
								"intermediaryCommission": {
									"$numberDecimal": "0.35"
								}
							},
							"renewal": {
								"intermediaryCommission": {
									"$numberDecimal": "0.35"
								}
							}
						},
						"terrorism": {
							"newBusiness": {
								"intermediaryCommission": {
									"$numberDecimal": "0.35"
								}
							},
							"endorsement": {
								"intermediaryCommission": {
									"$numberDecimal": "0.35"
								}
							},
							"renewal": {
								"intermediaryCommission": {
									"$numberDecimal": "0.35"
								}
							}
						}
					}
				}]
			},
			"cyber": {
				"effective": {
					"gte": {
						"$date": "2017-10-01T00:00:00.000Z"
					},
					"lte": "2022-10-10"
				},
				"commissions": [{
					"id": {
						"$oid": "5d30784e99c09b0d8b2e3a31"
					},
					"effective": {
						"gte": {
							"$date": "2017-10-01T00:00:00.000Z"
						}
					},
					"riskClasses": {
						"cyber": {
							"newBusiness": {
								"intermediaryCommission": {
									"$numberDecimal": "0.25"
								}
							},
							"endorsement": {
								"intermediaryCommission": {
									"$numberDecimal": "0.25"
								}
							},
							"renewal": {
								"intermediaryCommission": {
									"$numberDecimal": "0.25"
								}
							}
						}
					}
				}]
			},
			"casualty": {
				"effective": {
					"gte": {
						"$date": "2017-10-01T00:00:00.000Z"
					}
				},
				"commissions": [{
					"id": {
						"$oid": "5d30784e99c09b0d8b2e3a32"
					},
					"effective": {
						"gte": {
							"$date": "2017-10-01T00:00:00.000Z"
						}
					},
					"riskClasses": {
						"employers": {
							"newBusiness": {
								"intermediaryCommission": {
									"$numberDecimal": "0.25"
								}
							},
							"endorsement": {
								"intermediaryCommission": {
									"$numberDecimal": "0.25"
								}
							},
							"renewal": {
								"intermediaryCommission": {
									"$numberDecimal": "0.25"
								}
							}
						},
						"products": {
							"newBusiness": {
								"intermediaryCommission": {
									"$numberDecimal": "0.25"
								}
							},
							"endorsement": {
								"intermediaryCommission": {
									"$numberDecimal": "0.25"
								}
							},
							"renewal": {
								"intermediaryCommission": {
									"$numberDecimal": "0.25"
								}
							}
						}
					}
				}]
			},
			"pl": {
				"effective": {
					"gte": {
						"$date": "2017-10-01T00:00:00.000Z"
					}
				},
				"commissions": [{
					"id": {
						"$oid": "5d30784e99c09b0d8b2e3a33"
					},
					"effective": {
						"gte": {
							"$date": "2017-10-01T00:00:00.000Z"
						}
					},
					"riskClasses": {
						"pl": {
							"newBusiness": {
								"intermediaryCommission": {
									"$numberDecimal": "0.25"
								}
							},
							"endorsement": {
								"intermediaryCommission": {
									"$numberDecimal": "0.25"
								}
							},
							"renewal": {
								"intermediaryCommission": {
									"$numberDecimal": "0.25"
								}
							}
						}
					}
				}]
			}
		},
		"relations": {
			"group": "group1",
			"association": "association1",
			"grandMaster": "gm1",
			"acquiredBy": "codeOfAnotherBroker"
		},
		"communicationMethods": {
			"accountsEmailAddress": "accountants@broker",
			"renewalEmailAddress": "renewals@broker"
		},
		"identifiers": {
			"atlasPinNumber": "atlasp23232433",
			"regulatoryLicenseNumber": "12345678"
		},
		"categorization": {
			"grandMasterBrokerage": true,
			"branch": "branch1",
			"team": "team1",
			"toba": "toba1",
			"category": "ServiceWithPotential",
			"profiles": ["London broker", "Coverholder"]
		},
		"agencyResponsibles": [{
			"id": {
				"$oid": "5d30784e99c09b0d8b2e3a34"
			},
			"user": "uw1",
			"role": "underwriter"
		}, {
			"id": {
				"$oid": "5d30784e99c09b0d8b2e3a35"
			},
			"user": "assuw1",
			"role": "assistantUnderwriter"
		}],
		"employees": [{
			"code": "AON-PF",
			"firstName": "Peter",
			"lastName": "Falk",
			"allowedProducts": {
				"casualty": {
					"effective": {
						"gte": {
							"$date": "2017-10-01T00:00:00.000Z"
						}
					}
				},
				"cyber": {
					"effective": {
						"gte": {
							"$date": "2017-10-01T00:00:00.000Z"
						}
					}
				}
			},
			"communicationMethods": {
				"primary": {
					"emailAddress": "pf@pf.com"
				}
			}
		}],
		"businessHistory": {
			"complianceChecks": [{
				"id": {
					"$oid": "5d30784e99c09b0d8b2e3a36"
				},
				"date": "2017-03-15",
				"comment": "Optionally"
			}],
			"visits": [{
				"id": {
					"$oid": "5d30784e99c09b0d8b2e3a37"
				},
				"date": {
					"$date": "2017-02-14T00:00:00.000Z"
				},
				"comment": "Visited first time"
			}]
		},
		"flags": {
			"hideIntermediaryCommissionsInDocuments": true
		}
	},
	"code": "AON",
	"tenant": "mum",
	"contactType": "Intermediary",
	"optimalization": {
		"searchData": ["AON", "123456", "LONDON", "UK", "JOHN", "DOE"],
		"displayName": "John Doe - branch1"
	},
	"entityType": "Person",
	"preferredCommunicationMethod": "email",
	"crn": "123456",
	"ern": "1234/AB12345",
	"addresses": {
		"corresponding": {
			"isPrimary": true,
			"address": "London Street",
			"address2": "156/10",
			"city": "london",
			"postcode": "123456",
			"country": "UK"
		}
	},
	"communicationMethods": {
		"primary": {
			"phoneNumber": "9093 561 425",
			"mobilePhoneNumber": "0903 561 425",
			"faxNumber": "0903 561 425",
			"emailAddress": "kelemen@gratex.com",
			"website": "http://www.mum.uk.com"
		},
		"phoneNumbers": ["Phone number 1", "Phone number 2", "Phone number 3", "Phone number 4", "Phone number 5", "Phone number 6", "Phone number 7", "Phone number 8", "Phone number 9", "Phone number 10"]
	},
	"bankAccounts": [{
		"id": {
			"$oid": "5d30784e99c09b0d8b2e3a2e"
		},
		"country": "UK",
		"accountNumber": "123456",
		"accountName": "John doe's account",
		"bsbNumber": "bsb1",
		"currency": "GBP"
	}],
	"person": {
		"firstName": "John",
		"lastName": "Doe"
	},
	"_revision": {
		"valid": true,
		"transactionId": {
			"$oid": "000000000000000000000000"
		},
		"revisionId": {
			"$oid": "5d30784e99c09b0d8b2e3beb"
		},
		"created": {
			"date": {
				"$date": "2019-07-18T13:46:54.897Z"
			},
			"user": "mimport"
		},
		"modified": {
			"date": {
				"$date": "2019-07-18T13:46:54.897Z"
			},
			"user": "mimport"
		}
	}
}, {
	"_id": {
		"$oid": "5b276edc908f2575fe883ee8"
	},
	"_flags": ["migrated"],
	"workflow": {
		"workflowId": "intermediaryWorkflow",
		"state": "active",
		"history": [{
			"rowId": 0,
			"executed": {
				"date": {
					"$date": "2018-11-16T08:51:12.604Z"
				}
			},
			"action": "update",
			"state": "active",
			"target": "active"
		}, {
			"rowId": 1,
			"executed": {
				"date": {
					"$date": "2018-11-16T08:51:27.768Z"
				}
			},
			"action": "update",
			"state": "active",
			"target": "active"
		}, {
			"rowId": 2,
			"executed": {
				"date": {
					"$date": "2018-11-16T08:51:43.135Z"
				}
			},
			"action": "update",
			"state": "active",
			"target": "active"
		}]
	},
	"intermediary": {
		"allowedProducts": {
			"cyber": {
				"effective": {
					"gte": {
						"$date": "2010-10-01T00:00:00.000Z"
					}
				},
				"commissions": [{
					"effective": {
						"gte": {
							"$date": "2010-10-01T00:00:00.000Z"
						}
					},
					"riskClasses": {
						"cyber": {
							"newBusiness": {
								"intermediaryCommission": {
									"$numberDecimal": "0.2"
								}
							},
							"endorsement": {
								"intermediaryCommission": {
									"$numberDecimal": "0.2"
								}
							},
							"renewal": {
								"intermediaryCommission": {
									"$numberDecimal": "0.2"
								}
							}
						}
					},
					"id": {
						"$oid": "5bb1eaa41d50dca8a80caa34"
					}
				}]
			},
			"casualty": {
				"commissions": [{
					"effective": {
						"gte": {
							"$date": "2010-10-01T00:00:00.000Z"
						}
					},
					"riskClasses": {
						"employers": {
							"newBusiness": {
								"intermediaryCommission": {
									"$numberDecimal": "0"
								}
							},
							"endorsement": {
								"intermediaryCommission": {
									"$numberDecimal": "0"
								}
							},
							"renewal": {
								"intermediaryCommission": {
									"$numberDecimal": "0"
								}
							}
						},
						"products": {
							"newBusiness": {
								"intermediaryCommission": {
									"$numberDecimal": "0"
								}
							},
							"endorsement": {
								"intermediaryCommission": {
									"$numberDecimal": "0"
								}
							},
							"renewal": {
								"intermediaryCommission": {
									"$numberDecimal": "0"
								}
							}
						}
					},
					"id": {
						"$oid": "5bee850114d6a9015f127df3"
					}
				}],
				"effective": {
					"gte": {
						"$date": "2010-10-01T00:00:00.000Z"
					}
				}
			},
			"property": {
				"commissions": [{
					"effective": {
						"gte": {
							"$date": "2010-10-01T00:00:00.000Z"
						}
					},
					"riskClasses": {
						"building": {
							"newBusiness": {
								"intermediaryCommission": {
									"$numberDecimal": "0.25"
								}
							},
							"endorsement": {
								"intermediaryCommission": {
									"$numberDecimal": "0.25"
								}
							},
							"renewal": {
								"intermediaryCommission": {
									"$numberDecimal": "0.25"
								}
							}
						},
						"content": {
							"newBusiness": {
								"intermediaryCommission": {
									"$numberDecimal": "0.25"
								}
							},
							"endorsement": {
								"intermediaryCommission": {
									"$numberDecimal": "0.25"
								}
							},
							"renewal": {
								"intermediaryCommission": {
									"$numberDecimal": "0.25"
								}
							}
						},
						"contractWork": {
							"newBusiness": {
								"intermediaryCommission": {
									"$numberDecimal": "0.25"
								}
							},
							"endorsement": {
								"intermediaryCommission": {
									"$numberDecimal": "0.25"
								}
							},
							"renewal": {
								"intermediaryCommission": {
									"$numberDecimal": "0.25"
								}
							}
						},
						"lossOfRent": {
							"newBusiness": {
								"intermediaryCommission": {
									"$numberDecimal": "0.25"
								}
							},
							"endorsement": {
								"intermediaryCommission": {
									"$numberDecimal": "0.25"
								}
							},
							"renewal": {
								"intermediaryCommission": {
									"$numberDecimal": "0.25"
								}
							}
						},
						"legalExpenses": {
							"newBusiness": {
								"intermediaryCommission": {
									"$numberDecimal": "0.25"
								}
							},
							"endorsement": {
								"intermediaryCommission": {
									"$numberDecimal": "0.25"
								}
							},
							"renewal": {
								"intermediaryCommission": {
									"$numberDecimal": "0.25"
								}
							}
						},
						"propertyOwnersLiability": {
							"newBusiness": {
								"intermediaryCommission": {
									"$numberDecimal": "0.25"
								}
							},
							"endorsement": {
								"intermediaryCommission": {
									"$numberDecimal": "0.25"
								}
							},
							"renewal": {
								"intermediaryCommission": {
									"$numberDecimal": "0.25"
								}
							}
						},
						"employersLiability": {
							"newBusiness": {
								"intermediaryCommission": {
									"$numberDecimal": "0.25"
								}
							},
							"endorsement": {
								"intermediaryCommission": {
									"$numberDecimal": "0.25"
								}
							},
							"renewal": {
								"intermediaryCommission": {
									"$numberDecimal": "0.25"
								}
							}
						},
						"terrorism": {
							"newBusiness": {
								"intermediaryCommission": {
									"$numberDecimal": "0.05"
								}
							},
							"endorsement": {
								"intermediaryCommission": {
									"$numberDecimal": "0.05"
								}
							},
							"renewal": {
								"intermediaryCommission": {
									"$numberDecimal": "0.05"
								}
							}
						}
					},
					"id": {
						"$oid": "5bee850114d6a9015f127df4"
					}
				}],
				"effective": {
					"gte": {
						"$date": "2010-10-01T00:00:00.000Z"
					}
				}
			}
		},
		"relations": {
			"group": "MUM London",
			"association": null,
			"grandMaster": null,
			"acquiredBy": null
		},
		"communicationMethods": {
			"accountsEmailAddress": "chelcie.butler@uk.lockton.com",
			"renewalEmailAddress": null
		},
		"categorization": {
			"grandMasterBrokerage": true,
			"branch": "London",
			"team": null,
			"toba": "CRT",
			"category": null,
			"profiles": null
		},
		"agencyResponsibles": [],
		"employees": [{
			"code": "locktonLondon-BB",
			"firstName": "Brian",
			"lastName": "Boehmer",
			"allowedProducts": {
				"cyber": {
					"effective": {
						"gte": {
							"$date": "1970-01-01T00:00:00.000Z"
						}
					}
				}
			},
			"address": {
				"corresponding": {
					"address": "The St. Botolph Building",
					"address2": "138 Houndsditch",
					"city": "London",
					"postcode": "EC3A 7AG",
					"country": "UK",
					"state": "UK"
				}
			},
			"communicationMethods": {
				"primary": {
					"emailAddress": "brian.boehmer@uk.lockton.com"
				}
			}
		}, {
			"code": "locktonLondon-CH",
			"firstName": "Clara",
			"lastName": "Hudson",
			"allowedProducts": {
				"cyber": {
					"effective": {
						"gte": {
							"$date": "1970-01-01T00:00:00.000Z"
						}
					}
				}
			},
			"address": {
				"corresponding": {
					"address": "The St. Botolph Building",
					"address2": "138 Houndsditch",
					"city": "London",
					"postcode": "EC3A 7AG",
					"country": "UK",
					"state": "UK"
				}
			},
			"communicationMethods": {
				"primary": {
					"emailAddress": "clara.hudson@uk.lockton.com"
				}
			}
		}, {
			"code": "locktonLondon-DB",
			"firstName": "Dan",
			"lastName": "Blundell",
			"allowedProducts": {
				"cyber": {
					"effective": {
						"gte": {
							"$date": "1970-01-01T00:00:00.000Z"
						}
					}
				}
			},
			"address": {
				"corresponding": {
					"address": "The St. Botolph Building",
					"address2": "138 Houndsditch",
					"city": "London",
					"postcode": "EC3A 7AG",
					"country": "UK",
					"state": "UK"
				}
			},
			"communicationMethods": {
				"primary": {
					"emailAddress": "dan.blundell@uk.lockton.com"
				}
			}
		}, {
			"code": "locktonLondon-DI",
			"firstName": "David",
			"lastName": "Isherwood",
			"allowedProducts": {
				"cyber": {
					"effective": {
						"gte": {
							"$date": "1970-01-01T00:00:00.000Z"
						}
					}
				}
			},
			"address": {
				"corresponding": {
					"address": "The St. Botolph Building",
					"address2": "138 Houndsditch",
					"city": "London",
					"postcode": "EC3A 7AG",
					"country": "UK",
					"state": "UK"
				}
			},
			"communicationMethods": {
				"primary": {
					"emailAddress": "david.isherwood@uk.lockton.com"
				}
			}
		}, {
			"code": "locktonLondon-EL",
			"firstName": "Emma",
			"lastName": "Lucas",
			"allowedProducts": {
				"cyber": {
					"effective": {
						"gte": {
							"$date": "1970-01-01T00:00:00.000Z"
						}
					}
				}
			},
			"address": {
				"corresponding": {
					"address": "The St. Botolph Building",
					"address2": "138 Houndsditch",
					"city": "London",
					"postcode": "EC3A 7AG",
					"country": "UK",
					"state": "UK"
				}
			},
			"communicationMethods": {
				"primary": {
					"emailAddress": "emma.lucas@uk.lockton.com"
				}
			}
		}, {
			"code": "locktonLondon-GM",
			"firstName": "Graham",
			"lastName": "Mansfield",
			"allowedProducts": {
				"cyber": {
					"effective": {
						"gte": {
							"$date": "1970-01-01T00:00:00.000Z"
						}
					}
				}
			},
			"address": {
				"corresponding": {
					"address": "The St. Botolph Building",
					"address2": "138 Houndsditch",
					"city": "London",
					"postcode": "EC3A 7AG",
					"country": "UK",
					"state": "UK"
				}
			},
			"communicationMethods": {
				"primary": {
					"emailAddress": "graham.mansfield@uk.lockton.com"
				}
			}
		}, {
			"code": "locktonLondon-JW",
			"firstName": "John",
			"lastName": "Winter",
			"allowedProducts": {
				"cyber": {
					"effective": {
						"gte": {
							"$date": "1970-01-01T00:00:00.000Z"
						}
					}
				}
			},
			"address": {
				"corresponding": {
					"address": "The St. Botolph Building",
					"address2": "138 Houndsditch",
					"city": "London",
					"postcode": "EC3A 7AG",
					"country": "UK",
					"state": "UK"
				}
			},
			"communicationMethods": {
				"primary": {
					"emailAddress": "john.winter@uk.lockton.com"
				}
			}
		}, {
			"code": "locktonLondon-MR",
			"firstName": "Mark",
			"lastName": "Redmond",
			"allowedProducts": {
				"cyber": {
					"effective": {
						"gte": {
							"$date": "1970-01-01T00:00:00.000Z"
						}
					}
				}
			},
			"address": {
				"corresponding": {
					"address": "The St. Botolph Building",
					"address2": "138 Houndsditch",
					"city": "London",
					"postcode": "EC3A 7AG",
					"country": "UK",
					"state": "UK"
				}
			},
			"communicationMethods": {
				"primary": {
					"emailAddress": "mark.redmond@uk.lockton.com"
				}
			}
		}, {
			"code": "locktonLondon-OL",
			"firstName": "Oliver",
			"lastName": "Leonard",
			"allowedProducts": {
				"cyber": {
					"effective": {
						"gte": {
							"$date": "1970-01-01T00:00:00.000Z"
						}
					}
				}
			},
			"address": {
				"corresponding": {
					"address": "The St. Botolph Building",
					"address2": "138 Houndsditch",
					"city": "London",
					"postcode": "EC3A 7AG",
					"country": "UK",
					"state": "UK"
				}
			},
			"communicationMethods": {
				"primary": {
					"emailAddress": "oliver.leonard@uk.lockton.com"
				}
			}
		}, {
			"code": "locktonLondon-PS",
			"firstName": "Phillip",
			"lastName": "Smith",
			"allowedProducts": {
				"cyber": {
					"effective": {
						"gte": {
							"$date": "1970-01-01T00:00:00.000Z"
						}
					}
				}
			},
			"address": {
				"corresponding": {
					"address": "The St. Botolph Building",
					"address2": "138 Houndsditch",
					"city": "London",
					"postcode": "EC3A 7AG",
					"country": "UK",
					"state": "UK"
				}
			},
			"communicationMethods": {
				"primary": {
					"emailAddress": "phillip.smith@uk.lockton.com"
				}
			}
		}, {
			"code": "locktonLondon-RH",
			"firstName": "Rachel",
			"lastName": "Hayward",
			"allowedProducts": {
				"cyber": {
					"effective": {
						"gte": {
							"$date": "1970-01-01T00:00:00.000Z"
						}
					}
				}
			},
			"address": {
				"corresponding": {
					"address": "The St. Botolph Building",
					"address2": "138 Houndsditch",
					"city": "London",
					"postcode": "EC3A 7AG",
					"country": "UK",
					"state": "UK"
				}
			},
			"communicationMethods": {
				"primary": {
					"emailAddress": "rachel.hayward@uk.lockton.com"
				}
			}
		}, {
			"code": "locktonLondon-SC",
			"firstName": "Sean",
			"lastName": "Coull",
			"allowedProducts": {
				"cyber": {
					"effective": {
						"gte": {
							"$date": "1970-01-01T00:00:00.000Z"
						}
					}
				}
			},
			"address": {
				"corresponding": {
					"address": "The St. Botolph Building",
					"address2": "138 Houndsditch",
					"city": "London",
					"postcode": "EC3A 7AG",
					"country": "UK",
					"state": "UK"
				}
			},
			"communicationMethods": {
				"primary": {
					"emailAddress": "sean.coull@uk.lockton.com"
				}
			}
		}, {
			"code": "locktonLondon-SV",
			"firstName": "Simon",
			"lastName": "Vollans",
			"allowedProducts": {
				"cyber": {
					"effective": {
						"gte": {
							"$date": "1970-01-01T00:00:00.000Z"
						}
					}
				}
			},
			"address": {
				"corresponding": {
					"address": "The St. Botolph Building",
					"address2": "138 Houndsditch",
					"city": "London",
					"postcode": "EC3A 7AG",
					"country": "UK",
					"state": "UK"
				}
			},
			"communicationMethods": {
				"primary": {
					"emailAddress": "simon.vollans@uk.lockton.com"
				}
			}
		}, {
			"code": "locktonLondon-WP",
			"firstName": "Warren",
			"lastName": "Putt",
			"allowedProducts": {
				"cyber": {
					"effective": {
						"gte": {
							"$date": "1970-01-01T00:00:00.000Z"
						}
					}
				}
			},
			"address": {
				"corresponding": {
					"address": "The St. Botolph Building",
					"address2": "138 Houndsditch",
					"city": "London",
					"postcode": "EC3A 7AG",
					"country": "UK",
					"state": "UK"
				}
			},
			"communicationMethods": {
				"primary": {
					"emailAddress": "warren.putt@uk.lockton.com"
				}
			}
		}],
		"businessHistory": {
			"complianceChecks": [],
			"visits": []
		},
		"intermediarySpecific": {
			"intermediaryType": "broker"
		},
		"statementContact": "Chelcie Butler",
		"statementEmail": "Chelcie.Butler@uk.lockton.com"
	},
	"code": "locktonLondon",
	"contactType": "Intermediary",
	"optimalization": {
		"searchData": ["LOCKTONLONDON", "LOCKTON COMPANIES LLP", "LOCKTON", "COMPANIES", "LLP", "EC3A 7AG", "EC3A", "7AG", "LONDON", "UK"],
		"displayName": "Lockton Companies LLP - London"
	},
	"entityType": "Company",
	"preferredCommunicationMethod": "email",
	"crn": "",
	"ern": null,
	"communicationMethods": {
		"primary": {
			"phoneNumber": null,
			"mobilePhoneNumber": null,
			"faxNumber": null,
			"emailAddress": "craig.hulkes@uk.lockton.com",
			"website": null
		},
		"phoneNumbers": []
	},
	"company": {
		"name": {
			"primary": {
				"legal": "Lockton Companies LLP"
			}
		}
	},
	"_revision": {
		"valid": true,
		"transactionId": {
			"$oid": "5bee851f14d6a9015f128504"
		},
		"revisionId": {
			"$oid": "5bee852914d6a9015f128820"
		},
		"created": {
			"date": {
				"$date": "2018-06-18T08:35:40.878Z"
			},
			"user": "mimport"
		},
		"modified": {
			"date": {
				"$date": "2018-11-16T08:51:43.135Z"
			}
		}
	},
	"tenant": "mum",
	"addresses": {
		"corresponding": {
			"isPrimary": true,
			"address": "The St. Botolph Building",
			"address2": "138 Houndsditch",
			"city": "London",
			"postcode": "EC3A 7AG",
			"country": "UK",
			"state": ""
		}
	},
	"_history": [{
		"dateFrom": {
			"$date": "2018-06-18T08:35:40.878Z"
		},
		"dateTo": {
			"$date": "2018-11-16T08:51:12.604Z"
		},
		"user": "mimport",
		"transactionId": {
			"$oid": "000000000000000000000000"
		},
		"revisionId": {
			"$oid": "5b276edc908f2575fe883ecd"
		},
		"diff": {
			"_flags": ["imported"],
			"intermediary": {
				"allowedProducts": {
					"cyber": {
						"effective": {
							"gte": {
								"$date": "2017-10-01T00:00:00.000Z"
							}
						},
						"commissions": [{
							"_keys": {
								"id": {
									"$oid": "5bb1eaa41d50dca8a80caa34"
								}
							},
							"effective": {
								"gte": {
									"$date": "2017-10-01T00:00:00.000Z"
								}
							},
							"riskClasses": {
								"cyber": {
									"newBusiness": {
										"intermediaryCommission": {
											"$numberDecimal": "0.25"
										}
									},
									"endorsement": {
										"intermediaryCommission": {
											"$numberDecimal": "0.25"
										}
									},
									"renewal": {
										"intermediaryCommission": {
											"$numberDecimal": "0.25"
										}
									}
								}
							}
						}]
					},
					"casualty": null,
					"property": null
				},
				"categorization": {
					"toba": null
				},
				"statementContact": null,
				"statementEmail": null
			},
			"optimalization": {
				"searchData": ["LOCKTONLONDON", "EC3A 7AG", "LONDON", "UK", "LOCKTON COMPANIES LLP"]
			},
			"crn": null,
			"communicationMethods": {
				"primary": {
					"emailAddress": "chelcie.butler@uk.lockton.com"
				}
			},
			"addresses": {
				"corresponding": {
					"state": null
				}
			},
			"referenceNumber": null,
			"terminated": null
		},
		"eventId": {
			"$oid": "5bee850114d6a9015f127df2"
		}
	}],
	"referenceNumber": "AL0008001",
	"terminated": false
}, {
	"_id": {
		"$oid": "5b276edc908f2575fe883ee9"
	},
	"_flags": ["migrated"],
	"workflow": {
		"workflowId": "intermediaryWorkflow",
		"state": "active",
		"history": [{
			"rowId": 0,
			"executed": {
				"date": {
					"$date": "2018-11-16T08:51:12.604Z"
				}
			},
			"action": "update",
			"state": "active",
			"target": "active"
		}, {
			"rowId": 1,
			"executed": {
				"date": {
					"$date": "2018-11-16T08:51:27.768Z"
				}
			},
			"action": "update",
			"state": "active",
			"target": "active"
		}, {
			"rowId": 2,
			"executed": {
				"date": {
					"$date": "2018-11-16T08:51:43.135Z"
				}
			},
			"action": "update",
			"state": "active",
			"target": "active"
		}]
	},
	"intermediary": {
		"allowedProducts": {
			"cyber": {
				"effective": {
					"gte": {
						"$date": "2010-10-01T00:00:00.000Z"
					}
				},
				"commissions": [{
					"effective": {
						"gte": {
							"$date": "2010-10-01T00:00:00.000Z"
						}
					},
					"riskClasses": {
						"cyber": {
							"newBusiness": {
								"intermediaryCommission": {
									"$numberDecimal": "0.2"
								}
							},
							"endorsement": {
								"intermediaryCommission": {
									"$numberDecimal": "0.2"
								}
							},
							"renewal": {
								"intermediaryCommission": {
									"$numberDecimal": "0.2"
								}
							}
						}
					},
					"id": {
						"$oid": "5bb1eaa41d50dca8a80caa35"
					}
				}]
			},
			"casualty": {
				"commissions": [{
					"effective": {
						"gte": {
							"$date": "2010-10-01T00:00:00.000Z"
						}
					},
					"riskClasses": {
						"employers": {
							"newBusiness": {
								"intermediaryCommission": {
									"$numberDecimal": "0"
								}
							},
							"endorsement": {
								"intermediaryCommission": {
									"$numberDecimal": "0"
								}
							},
							"renewal": {
								"intermediaryCommission": {
									"$numberDecimal": "0"
								}
							}
						},
						"products": {
							"newBusiness": {
								"intermediaryCommission": {
									"$numberDecimal": "0"
								}
							},
							"endorsement": {
								"intermediaryCommission": {
									"$numberDecimal": "0"
								}
							},
							"renewal": {
								"intermediaryCommission": {
									"$numberDecimal": "0"
								}
							}
						}
					},
					"id": {
						"$oid": "5bee850114d6a9015f1279a3"
					}
				}],
				"effective": {
					"gte": {
						"$date": "2010-10-01T00:00:00.000Z"
					}
				}
			},
			"property": {
				"commissions": [{
					"effective": {
						"gte": {
							"$date": "2010-10-01T00:00:00.000Z"
						}
					},
					"riskClasses": {
						"building": {
							"newBusiness": {
								"intermediaryCommission": {
									"$numberDecimal": "0.25"
								}
							},
							"endorsement": {
								"intermediaryCommission": {
									"$numberDecimal": "0.25"
								}
							},
							"renewal": {
								"intermediaryCommission": {
									"$numberDecimal": "0.25"
								}
							}
						},
						"content": {
							"newBusiness": {
								"intermediaryCommission": {
									"$numberDecimal": "0.25"
								}
							},
							"endorsement": {
								"intermediaryCommission": {
									"$numberDecimal": "0.25"
								}
							},
							"renewal": {
								"intermediaryCommission": {
									"$numberDecimal": "0.25"
								}
							}
						},
						"contractWork": {
							"newBusiness": {
								"intermediaryCommission": {
									"$numberDecimal": "0.25"
								}
							},
							"endorsement": {
								"intermediaryCommission": {
									"$numberDecimal": "0.25"
								}
							},
							"renewal": {
								"intermediaryCommission": {
									"$numberDecimal": "0.25"
								}
							}
						},
						"lossOfRent": {
							"newBusiness": {
								"intermediaryCommission": {
									"$numberDecimal": "0.25"
								}
							},
							"endorsement": {
								"intermediaryCommission": {
									"$numberDecimal": "0.25"
								}
							},
							"renewal": {
								"intermediaryCommission": {
									"$numberDecimal": "0.25"
								}
							}
						},
						"legalExpenses": {
							"newBusiness": {
								"intermediaryCommission": {
									"$numberDecimal": "0.25"
								}
							},
							"endorsement": {
								"intermediaryCommission": {
									"$numberDecimal": "0.25"
								}
							},
							"renewal": {
								"intermediaryCommission": {
									"$numberDecimal": "0.25"
								}
							}
						},
						"propertyOwnersLiability": {
							"newBusiness": {
								"intermediaryCommission": {
									"$numberDecimal": "0.25"
								}
							},
							"endorsement": {
								"intermediaryCommission": {
									"$numberDecimal": "0.25"
								}
							},
							"renewal": {
								"intermediaryCommission": {
									"$numberDecimal": "0.25"
								}
							}
						},
						"employersLiability": {
							"newBusiness": {
								"intermediaryCommission": {
									"$numberDecimal": "0.25"
								}
							},
							"endorsement": {
								"intermediaryCommission": {
									"$numberDecimal": "0.25"
								}
							},
							"renewal": {
								"intermediaryCommission": {
									"$numberDecimal": "0.25"
								}
							}
						},
						"terrorism": {
							"newBusiness": {
								"intermediaryCommission": {
									"$numberDecimal": "0.05"
								}
							},
							"endorsement": {
								"intermediaryCommission": {
									"$numberDecimal": "0.05"
								}
							},
							"renewal": {
								"intermediaryCommission": {
									"$numberDecimal": "0.05"
								}
							}
						}
					},
					"id": {
						"$oid": "5bee850114d6a9015f1279a4"
					}
				}],
				"effective": {
					"gte": {
						"$date": "2010-10-01T00:00:00.000Z"
					}
				}
			}
		},
		"communicationMethods": {
			"accountsEmailAddress": "peter@excelforaccountants.co.uk",
			"renewalEmailAddress": null
		},
		"categorization": {
			"grandMasterBrokerage": false,
			"branch": "Sutton",
			"team": null,
			"toba": "CRT",
			"category": "ServiceWithPotential",
			"profiles": null
		},
		"agencyResponsibles": [],
		"employees": [{
			"code": "aliceCastleLimited-DT",
			"firstName": "Daniel",
			"lastName": "Tarry",
			"allowedProducts": {
				"cyber": {
					"effective": {
						"gte": {
							"$date": "2017-10-01T00:00:00.000Z"
						}
					}
				}
			},
			"address": {
				"corresponding": {
					"address": "Oakwood House",
					"address2": "Guildford Road",
					"city": "Bucks Green",
					"postcode": "RH12 3JJ",
					"country": "UK",
					"state": "West Sussex"
				}
			},
			"communicationMethods": {
				"primary": {
					"emailAddress": "daniel.tarry@alicecastle.com"
				}
			}
		}, {
			"code": "aliceCastleLimited-KM",
			"firstName": "Kevin",
			"lastName": "McGill",
			"allowedProducts": {
				"cyber": {
					"effective": {
						"gte": {
							"$date": "2017-10-01T00:00:00.000Z"
						}
					}
				}
			},
			"address": {
				"corresponding": {
					"address": "Oakwood House",
					"address2": "Guildford Road",
					"city": "Bucks Green",
					"postcode": "RH12 3JJ",
					"country": "UK",
					"state": "West Sussex"
				}
			},
			"communicationMethods": {
				"primary": {
					"emailAddress": "kevin.mcgill@alicecastle.com"
				}
			}
		}, {
			"code": "aliceCastleLimited-DV",
			"firstName": "Denise",
			"lastName": "Vieyra",
			"allowedProducts": {
				"cyber": {
					"effective": {
						"gte": {
							"$date": "2017-10-01T00:00:00.000Z"
						}
					}
				}
			},
			"address": {
				"corresponding": {
					"address": "Oakwood House",
					"address2": "Guildford Road",
					"city": "Bucks Green",
					"postcode": "RH12 3JJ",
					"country": "UK",
					"state": "West Sussex"
				}
			},
			"communicationMethods": {
				"primary": {
					"emailAddress": "denise.vieyra@alicecastle.com"
				}
			}
		}, {
			"code": "aliceCastleLimited-SF",
			"firstName": "Scott",
			"lastName": "Farrell",
			"allowedProducts": {
				"cyber": {
					"effective": {
						"gte": {
							"$date": "2017-10-01T00:00:00.000Z"
						}
					}
				}
			},
			"address": {
				"corresponding": {
					"address": "Oakwood House",
					"address2": "Guildford Road",
					"city": "Bucks Green",
					"postcode": "RH12 3JJ",
					"country": "UK",
					"state": "West Sussex"
				}
			},
			"communicationMethods": {
				"primary": {
					"emailAddress": "denise.vieyra@alicecastle.com"
				}
			}
		}],
		"businessHistory": {
			"complianceChecks": [],
			"visits": []
		},
		"intermediarySpecific": {
			"intermediaryType": "broker"
		},
		"statementContact": "Peter Hool",
		"statementEmail": "peter@excelforaccountants.co.uk"
	},
	"code": "aliceCastleLimited",
	"contactType": "Intermediary",
	"optimalization": {
		"searchData": ["ALICECASTLELIMITED", "ALICE CASTLE LIMITED", "ALICE", "CASTLE", "LIMITED", "SM1 4AF", "SM1", "4AF", "SUTTON", "UK"],
		"displayName": "Alice Castle Limited - Sutton"
	},
	"entityType": "Company",
	"preferredCommunicationMethod": "email",
	"crn": "",
	"ern": null,
	"communicationMethods": {
		"primary": {
			"phoneNumber": "02034630747",
			"mobilePhoneNumber": null,
			"faxNumber": null,
			"emailAddress": "scott.farrell@alicecastle.com",
			"website": null
		},
		"phoneNumbers": []
	},
	"company": {
		"name": {
			"primary": {
				"legal": "Alice Castle Limited"
			}
		}
	},
	"_revision": {
		"valid": true,
		"transactionId": {
			"$oid": "5bee851f14d6a9015f128504"
		},
		"revisionId": {
			"$oid": "5bee852214d6a9015f128708"
		},
		"created": {
			"date": {
				"$date": "2018-06-18T08:35:40.878Z"
			},
			"user": "mimport"
		},
		"modified": {
			"date": {
				"$date": "2018-11-16T08:51:43.135Z"
			}
		}
	},
	"tenant": "mum",
	"addresses": {
		"corresponding": {
			"isPrimary": true,
			"address": "46 Throwley Way",
			"address2": "",
			"city": "Sutton",
			"postcode": "SM1 4AF",
			"country": "UK",
			"state": "Surrey"
		}
	},
	"_history": [{
		"dateFrom": {
			"$date": "2018-06-18T08:35:40.878Z"
		},
		"dateTo": {
			"$date": "2018-11-16T08:51:12.604Z"
		},
		"user": "mimport",
		"transactionId": {
			"$oid": "000000000000000000000000"
		},
		"revisionId": {
			"$oid": "5b276edc908f2575fe883ece"
		},
		"diff": {
			"_flags": ["imported"],
			"intermediary": {
				"allowedProducts": {
					"cyber": {
						"effective": {
							"gte": {
								"$date": "2017-10-01T00:00:00.000Z"
							}
						},
						"commissions": [{
							"_keys": {
								"id": {
									"$oid": "5bb1eaa41d50dca8a80caa35"
								}
							},
							"effective": {
								"gte": {
									"$date": "2017-10-01T00:00:00.000Z"
								}
							},
							"riskClasses": {
								"cyber": {
									"newBusiness": {
										"intermediaryCommission": {
											"$numberDecimal": "0.25"
										}
									},
									"endorsement": {
										"intermediaryCommission": {
											"$numberDecimal": "0.25"
										}
									},
									"renewal": {
										"intermediaryCommission": {
											"$numberDecimal": "0.25"
										}
									}
								}
							}
						}]
					},
					"casualty": null,
					"property": null
				},
				"categorization": {
					"branch": null,
					"toba": "LMNRT"
				},
				"statementContact": null,
				"statementEmail": null
			},
			"optimalization": {
				"searchData": ["ALICECASTLELIMITED", "RH12 3JJ", "BUCKS GREEN", "UK", "ALICE CASTLE LIMITED"],
				"displayName": "Alice Castle Limited"
			},
			"crn": null,
			"communicationMethods": {
				"primary": {
					"emailAddress": "peter@excelforaccountants.co.uk"
				}
			},
			"addresses": {
				"corresponding": {
					"address": "Oakwood House",
					"address2": "Guildford Road",
					"city": "Bucks Green",
					"postcode": "RH12 3JJ",
					"state": null
				}
			},
			"referenceNumber": null,
			"terminated": null
		},
		"eventId": {
			"$oid": "5bee850114d6a9015f1279a2"
		}
	}],
	"referenceNumber": "AA0042001",
	"terminated": false
},
